[gd_scene load_steps=2 format=3 uid="uid://f5ho12y8qt2d"]

[ext_resource type="Script" path="res://gs_game_work/work_uuid.gd" id="1_ykk15"]

[node name="WorkUUID" type="Node"]
script = ExtResource("1_ykk15")
