[gd_scene load_steps=2 format=3 uid="uid://jrxwxyalkwjm"]

[ext_resource type="Script" path="res://gs_game_work/work_performance_thing.gd" id="1_mbchh"]

[node name="WorkPerformanceThing" type="Node"]
script = ExtResource("1_mbchh")
